MrJerryRigAnimation_1
-----------------------------------
Seeking Help	- Idle	= 0-160
Normal Idle	- Idle	= 200-300
Incorrect	- 	= 320-390
Correct		-	= 400-450
Walking			= 470-496


MrJerryRigAnimation_2
---------------------------------
Tensed 		- Idle	= 0-119
Thinking 	- Idle	= 130-315
Hey!!! Help me	-	= 320-396
Running		- 	= 400-434

