%YAML 1.1
%TAG !u! tag:unity3d.com,2011:
--- !u!1 &5070398993725591264
GameObject:
  m_ObjectHideFlags: 0
  m_CorrespondingSourceObject: {fileID: 0}
  m_PrefabInstance: {fileID: 0}
  m_PrefabAsset: {fileID: 0}
  serializedVersion: 6
  m_Component:
  - component: {fileID: 5070398993725591265}
  - component: {fileID: 1960792433664644247}
  m_Layer: 0
  m_Name: Prefab - PowerMeter
  m_TagString: Untagged
  m_Icon: {fileID: 0}
  m_NavMeshLayer: 0
  m_StaticEditorFlags: 0
  m_IsActive: 1
--- !u!4 &5070398993725591265
Transform:
  m_ObjectHideFlags: 0
  m_CorrespondingSourceObject: {fileID: 0}
  m_PrefabInstance: {fileID: 0}
  m_PrefabAsset: {fileID: 0}
  m_GameObject: {fileID: 5070398993725591264}
  m_LocalRotation: {x: 0, y: 0, z: 0, w: 1}
  m_LocalPosition: {x: 0, y: 0, z: 0}
  m_LocalScale: {x: 10, y: 10, z: 10}
  m_Children:
  - {fileID: 227178670090082954}
  m_Father: {fileID: 0}
  m_RootOrder: 0
  m_LocalEulerAnglesHint: {x: 0, y: 0, z: 0}
--- !u!114 &1960792433664644247
MonoBehaviour:
  m_ObjectHideFlags: 0
  m_CorrespondingSourceObject: {fileID: 0}
  m_PrefabInstance: {fileID: 0}
  m_PrefabAsset: {fileID: 0}
  m_GameObject: {fileID: 5070398993725591264}
  m_Enabled: 1
  m_EditorHideFlags: 0
  m_Script: {fileID: 11500000, guid: a6891d9075d4142df9b8de219299f372, type: 3}
  m_Name: 
  m_EditorClassIdentifier: 
  powerBarFBX: {fileID: 3854025831820372121}
  powerBarIndicator: {fileID: 9207230514876682910}
  animatorReferenceForPowerBar: {fileID: 0}
  isHidePowerBarUsingTouchDown: 1
  typeOfPowerBar: 2
  curveForAngulerVelocityWhenPerfectOnMin:
    serializedVersion: 2
    m_Curve:
    - serializedVersion: 3
      time: 0
      value: 1
      inSlope: -2.2141116
      outSlope: -2.2141116
      tangentMode: 0
      weightedMode: 0
      inWeight: 0
      outWeight: 0.02864583
    - serializedVersion: 3
      time: 0.20915979
      value: 0.4862296
      inSlope: -1.0751671
      outSlope: -1.0751671
      tangentMode: 0
      weightedMode: 0
      inWeight: 0.33333334
      outWeight: 0.33333334
    - serializedVersion: 3
      time: 1
      value: 0.25
      inSlope: 0
      outSlope: 0
      tangentMode: 0
      weightedMode: 0
      inWeight: 0
      outWeight: 0
    m_PreInfinity: 2
    m_PostInfinity: 2
    m_RotationOrder: 4
  curveForAngulerVelocityWhenPerfectOnMax:
    serializedVersion: 2
    m_Curve:
    - serializedVersion: 3
      time: 0
      value: 0.1
      inSlope: 0
      outSlope: 0
      tangentMode: 0
      weightedMode: 0
      inWeight: 0
      outWeight: 0
    - serializedVersion: 3
      time: 1
      value: 1
      inSlope: 0
      outSlope: 0
      tangentMode: 0
      weightedMode: 0
      inWeight: 0
      outWeight: 0
    m_PreInfinity: 2
    m_PostInfinity: 2
    m_RotationOrder: 4
  curveForAngulerVelocityWhenPerfectOnCenter:
    serializedVersion: 2
    m_Curve:
    - serializedVersion: 3
      time: 0
      value: 0.1
      inSlope: 0
      outSlope: 0
      tangentMode: 0
      weightedMode: 0
      inWeight: 0
      outWeight: 0
    - serializedVersion: 3
      time: 0.5
      value: 1
      inSlope: 0
      outSlope: 0
      tangentMode: 0
      weightedMode: 0
      inWeight: 0
      outWeight: 0
    - serializedVersion: 3
      time: 0.6965242
      value: 0.6914332
      inSlope: -2.5816197
      outSlope: -2.5816197
      tangentMode: 0
      weightedMode: 0
      inWeight: 0.33333334
      outWeight: 0.33333334
    - serializedVersion: 3
      time: 1
      value: 0.1
      inSlope: 0.015985033
      outSlope: 0.015985033
      tangentMode: 0
      weightedMode: 0
      inWeight: 0.17187524
      outWeight: 0
    m_PreInfinity: 2
    m_PostInfinity: 2
    m_RotationOrder: 4
  rotationOnMin: 60
  rotationOnMax: 300
  boundaryArea: 0.1
  defaultAngulerVelocity: 350
--- !u!1001 &5070398994536624528
PrefabInstance:
  m_ObjectHideFlags: 0
  serializedVersion: 2
  m_Modification:
    m_TransformParent: {fileID: 5070398993725591265}
    m_Modifications:
    - target: {fileID: -4216859302048453862, guid: 94a38f5acfc27419294d7215a809d7b9,
        type: 3}
      propertyPath: m_LocalPosition.x
      value: 0
      objectReference: {fileID: 0}
    - target: {fileID: -4216859302048453862, guid: 94a38f5acfc27419294d7215a809d7b9,
        type: 3}
      propertyPath: m_LocalPosition.y
      value: 0
      objectReference: {fileID: 0}
    - target: {fileID: -4216859302048453862, guid: 94a38f5acfc27419294d7215a809d7b9,
        type: 3}
      propertyPath: m_LocalPosition.z
      value: 0
      objectReference: {fileID: 0}
    - target: {fileID: -4216859302048453862, guid: 94a38f5acfc27419294d7215a809d7b9,
        type: 3}
      propertyPath: m_LocalRotation.x
      value: -0
      objectReference: {fileID: 0}
    - target: {fileID: -4216859302048453862, guid: 94a38f5acfc27419294d7215a809d7b9,
        type: 3}
      propertyPath: m_LocalRotation.y
      value: -0
      objectReference: {fileID: 0}
    - target: {fileID: -4216859302048453862, guid: 94a38f5acfc27419294d7215a809d7b9,
        type: 3}
      propertyPath: m_LocalRotation.z
      value: -0
      objectReference: {fileID: 0}
    - target: {fileID: -4216859302048453862, guid: 94a38f5acfc27419294d7215a809d7b9,
        type: 3}
      propertyPath: m_LocalRotation.w
      value: 1
      objectReference: {fileID: 0}
    - target: {fileID: -4216859302048453862, guid: 94a38f5acfc27419294d7215a809d7b9,
        type: 3}
      propertyPath: m_RootOrder
      value: 0
      objectReference: {fileID: 0}
    - target: {fileID: -4216859302048453862, guid: 94a38f5acfc27419294d7215a809d7b9,
        type: 3}
      propertyPath: m_LocalEulerAnglesHint.x
      value: 0
      objectReference: {fileID: 0}
    - target: {fileID: -4216859302048453862, guid: 94a38f5acfc27419294d7215a809d7b9,
        type: 3}
      propertyPath: m_LocalEulerAnglesHint.y
      value: 0
      objectReference: {fileID: 0}
    - target: {fileID: -4216859302048453862, guid: 94a38f5acfc27419294d7215a809d7b9,
        type: 3}
      propertyPath: m_LocalEulerAnglesHint.z
      value: 0
      objectReference: {fileID: 0}
    - target: {fileID: -4216859302048453862, guid: 94a38f5acfc27419294d7215a809d7b9,
        type: 3}
      propertyPath: m_LocalScale.x
      value: 10
      objectReference: {fileID: 0}
    - target: {fileID: -4216859302048453862, guid: 94a38f5acfc27419294d7215a809d7b9,
        type: 3}
      propertyPath: m_LocalScale.y
      value: 10
      objectReference: {fileID: 0}
    - target: {fileID: -4216859302048453862, guid: 94a38f5acfc27419294d7215a809d7b9,
        type: 3}
      propertyPath: m_LocalScale.z
      value: 10
      objectReference: {fileID: 0}
    - target: {fileID: -2062015502822359750, guid: 94a38f5acfc27419294d7215a809d7b9,
        type: 3}
      propertyPath: m_Materials.Array.data[0]
      value: 
      objectReference: {fileID: 2100000, guid: a432ad12ba9354d41843f2bafcdd93b8, type: 2}
    - target: {fileID: -927199367670048503, guid: 94a38f5acfc27419294d7215a809d7b9,
        type: 3}
      propertyPath: m_Name
      value: FBX - PowerMeter
      objectReference: {fileID: 0}
    - target: {fileID: -927199367670048503, guid: 94a38f5acfc27419294d7215a809d7b9,
        type: 3}
      propertyPath: m_IsActive
      value: 0
      objectReference: {fileID: 0}
    - target: {fileID: -629868377522259834, guid: 94a38f5acfc27419294d7215a809d7b9,
        type: 3}
      propertyPath: m_Materials.Array.data[0]
      value: 
      objectReference: {fileID: 2100000, guid: a432ad12ba9354d41843f2bafcdd93b8, type: 2}
    - target: {fileID: 4150922865203929870, guid: 94a38f5acfc27419294d7215a809d7b9,
        type: 3}
      propertyPath: m_LocalRotation.x
      value: 0
      objectReference: {fileID: 0}
    - target: {fileID: 4150922865203929870, guid: 94a38f5acfc27419294d7215a809d7b9,
        type: 3}
      propertyPath: m_LocalRotation.y
      value: 0
      objectReference: {fileID: 0}
    - target: {fileID: 4150922865203929870, guid: 94a38f5acfc27419294d7215a809d7b9,
        type: 3}
      propertyPath: m_LocalRotation.z
      value: 0.7071068
      objectReference: {fileID: 0}
    - target: {fileID: 4150922865203929870, guid: 94a38f5acfc27419294d7215a809d7b9,
        type: 3}
      propertyPath: m_LocalRotation.w
      value: 0.7071068
      objectReference: {fileID: 0}
    - target: {fileID: 4150922865203929870, guid: 94a38f5acfc27419294d7215a809d7b9,
        type: 3}
      propertyPath: m_LocalEulerAnglesHint.x
      value: 0
      objectReference: {fileID: 0}
    - target: {fileID: 4150922865203929870, guid: 94a38f5acfc27419294d7215a809d7b9,
        type: 3}
      propertyPath: m_LocalEulerAnglesHint.z
      value: 90
      objectReference: {fileID: 0}
    - target: {fileID: 4150922865203929870, guid: 94a38f5acfc27419294d7215a809d7b9,
        type: 3}
      propertyPath: m_LocalEulerAnglesHint.y
      value: 0
      objectReference: {fileID: 0}
    m_RemovedComponents: []
  m_SourcePrefab: {fileID: 100100000, guid: 94a38f5acfc27419294d7215a809d7b9, type: 3}
--- !u!1 &3854025831820372121 stripped
GameObject:
  m_CorrespondingSourceObject: {fileID: -927199367670048503, guid: 94a38f5acfc27419294d7215a809d7b9,
    type: 3}
  m_PrefabInstance: {fileID: 5070398994536624528}
  m_PrefabAsset: {fileID: 0}
--- !u!4 &227178670090082954 stripped
Transform:
  m_CorrespondingSourceObject: {fileID: -4216859302048453862, guid: 94a38f5acfc27419294d7215a809d7b9,
    type: 3}
  m_PrefabInstance: {fileID: 5070398994536624528}
  m_PrefabAsset: {fileID: 0}
--- !u!4 &9207230514876682910 stripped
Transform:
  m_CorrespondingSourceObject: {fileID: 4150922865203929870, guid: 94a38f5acfc27419294d7215a809d7b9,
    type: 3}
  m_PrefabInstance: {fileID: 5070398994536624528}
  m_PrefabAsset: {fileID: 0}
